[
  {
    "id": 1,
    "code": "af",
    "name": "Afrikaans"
  },
  {
    "id": 2,
    "code": "agq",
    "name": "Aghem"
  },
  {
    "id": 3,
    "code": "ak",
    "name": "Akan"
  },
  {
    "id": 4,
    "code": "smn",
    "name": "Anarâškielâ"
  },
  {
    "id": 5,
    "code": "ast",
    "name": "Asturianu"
  },
  {
    "id": 6,
    "code": "az",
    "name": "Azərbaycan"
  },
  {
    "id": 7,
    "code": "ms",
    "name": "Bahasa Malaysia"
  },
  {
    "id": 8,
    "code": "bm",
    "name": "Bamanakan"
  },
  {
    "id": 9,
    "code": "bs",
    "name": "Bosanski"
  },
  {
    "id": 10,
    "code": "br",
    "name": "Brezhoneg"
  },
  {
    "id": 11,
    "code": "bas",
    "name": "Ɓàsàa"
  },
  {
    "id": 12,
    "code": "ca",
    "name": "Català"
  },
  {
    "id": 13,
    "code": "cs",
    "name": "Čeština"
  },
  {
    "id": 14,
    "code": "kde",
    "name": "Chimakonde"
  },
  {
    "id": 15,
    "code": "sn",
    "name": "ChiShona"
  },
  {
    "id": 16,
    "code": "cy",
    "name": "Cymraeg"
  },
  {
    "id": 17,
    "code": "da",
    "name": "Dansk"
  },
  {
    "id": 18,
    "code": "se",
    "name": "Davvisámegiella"
  },
  {
    "id": 19,
    "code": "de",
    "name": "Deutsch"
  },
  {
    "id": 20,
    "code": "luo",
    "name": "Dholuo"
  },
  {
    "id": 21,
    "code": "dsb",
    "name": "Dolnoserbšćina"
  },
  {
    "id": 22,
    "code": "dua",
    "name": "Duálá"
  },
  {
    "id": 23,
    "code": "yo",
    "name": "Èdè Yorùbá"
  },
  {
    "id": 24,
    "code": "et",
    "name": "Eesti"
  },
  {
    "id": 25,
    "code": "guz",
    "name": "Ekegusii"
  },
  {
    "id": 26,
    "code": "en",
    "name": "English"
  },
  {
    "id": 27,
    "code": "es",
    "name": "Español"
  },
  {
    "id": 28,
    "code": "eo",
    "name": "Esperanto"
  },
  {
    "id": 29,
    "code": "eu",
    "name": "Euskara"
  },
  {
    "id": 30,
    "code": "ee",
    "name": "Eʋegbe"
  },
  {
    "id": 31,
    "code": "ewo",
    "name": "Ewondo"
  },
  {
    "id": 32,
    "code": "fil",
    "name": "Filipino"
  },
  {
    "id": 33,
    "code": "fo",
    "name": "Føroyskt"
  },
  {
    "id": 34,
    "code": "fr",
    "name": "Français"
  },
  {
    "id": 35,
    "code": "fur",
    "name": "Furlan"
  },
  {
    "id": 36,
    "code": "ga",
    "name": "Gaeilge"
  },
  {
    "id": 37,
    "code": "gv",
    "name": "Gaelg"
  },
  {
    "id": 38,
    "code": "gd",
    "name": "Gàidhlig"
  },
  {
    "id": 39,
    "code": "gl",
    "name": "Galego"
  },
  {
    "id": 40,
    "code": "ki",
    "name": "Gikuyu"
  },
  {
    "id": 41,
    "code": "ha",
    "name": "Hausa"
  },
  {
    "id": 42,
    "code": "bez",
    "name": "Hibena"
  },
  {
    "id": 43,
    "code": "hsb",
    "name": "Hornjoserbšćina"
  },
  {
    "id": 44,
    "code": "hr",
    "name": "Hrvatski"
  },
  {
    "id": 45,
    "code": "haw",
    "name": "\tʻŌlelo Hawaiʻi"
  },
  {
    "id": 46,
    "code": "bem",
    "name": "Ichibemba"
  },
  {
    "id": 47,
    "code": "ig",
    "name": "Igbo"
  },
  {
    "id": 48,
    "code": "rn",
    "name": "Ikirundi"
  },
  {
    "id": 49,
    "code": "in",
    "name": "Indonesia"
  },
  {
    "id": 50,
    "code": "sbp",
    "name": "Ishisangu"
  },
  {
    "id": 51,
    "code": "nd",
    "name": "isiNdebele"
  },
  {
    "id": 52,
    "code": "zu",
    "name": "isiZulu"
  },
  {
    "id": 53,
    "code": "is",
    "name": "Íslenska"
  },
  {
    "id": 54,
    "code": "it",
    "name": "Italiano"
  },
  {
    "id": 55,
    "code": "dyo",
    "name": "Joola"
  },
  {
    "id": 56,
    "code": "kea",
    "name": "Kabuverdianu"
  },
  {
    "id": 57,
    "code": "kkj",
    "name": "Kakɔ"
  },
  {
    "id": 58,
    "code": "kl",
    "name": "Kalaallisut"
  },
  {
    "id": 59,
    "code": "kln",
    "name": "Kalenjin"
  },
  {
    "id": 60,
    "code": "kw",
    "name": "Kernewek"
  },
  {
    "id": 61,
    "code": "naq",
    "name": "Khoekhoegowab"
  },
  {
    "id": 62,
    "code": "ebu",
    "name": "Kĩembu"
  },
  {
    "id": 63,
    "code": "rof",
    "name": "Kihorombo"
  },
  {
    "id": 64,
    "code": "kam",
    "name": "Kikamba"
  },
  {
    "id": 65,
    "code": "jmc",
    "name": "Kimachame"
  },
  {
    "id": 66,
    "code": "mer",
    "name": "Kĩmĩrũ"
  },
  {
    "id": 67,
    "code": "rw",
    "name": "Kinyarwanda"
  },
  {
    "id": 68,
    "code": "asa",
    "name": "Kipare"
  },
  {
    "id": 69,
    "code": "rwk",
    "name": "Kiruwa"
  },
  {
    "id": 70,
    "code": "saq",
    "name": "Kisampur"
  },
  {
    "id": 71,
    "code": "ksb",
    "name": "Kishambaa"
  },
  {
    "id": 72,
    "code": "sw",
    "name": "Kiswahili"
  },
  {
    "id": 73,
    "code": "dav",
    "name": "Kitaita"
  },
  {
    "id": 74,
    "code": "teo",
    "name": "Kiteso"
  },
  {
    "id": 75,
    "code": "lag",
    "name": "Kɨlaangi"
  },
  {
    "id": 76,
    "code": "ksh",
    "name": "Kölsch"
  },
  {
    "id": 77,
    "code": "khq",
    "name": "Koyra Ciini"
  },
  {
    "id": 78,
    "code": "ses",
    "name": "Koyraboro Senni"
  },
  {
    "id": 79,
    "code": "mfe",
    "name": "Kreol Morisien"
  },
  {
    "id": 80,
    "code": "vun",
    "name": "Kyivunjo"
  },
  {
    "id": 81,
    "code": "lkt",
    "name": "Lakȟólʼiyapi"
  },
  {
    "id": 82,
    "code": "lv",
    "name": "Latviešu"
  },
  {
    "id": 83,
    "code": "to",
    "name": "Lea Fakatonga"
  },
  {
    "id": 84,
    "code": "lb",
    "name": "Lëtzebuergesch"
  },
  {
    "id": 85,
    "code": "lt",
    "name": "Lietuvių"
  },
  {
    "id": 86,
    "code": "ln",
    "name": "Lingála"
  },
  {
    "id": 87,
    "code": "lg",
    "name": "Luganda"
  },
  {
    "id": 88,
    "code": "luy",
    "name": "Luluhia"
  },
  {
    "id": 89,
    "code": "mas",
    "name": "Maa"
  },
  {
    "id": 90,
    "code": "hu",
    "name": "Magyar"
  },
  {
    "id": 91,
    "code": "mgh",
    "name": "Makua"
  },
  {
    "id": 92,
    "code": "mg",
    "name": "Malagasy"
  },
  {
    "id": 93,
    "code": "mt",
    "name": "Malti"
  },
  {
    "id": 94,
    "code": "mgo",
    "name": "Metaʼ"
  },
  {
    "id": 95,
    "code": "mua",
    "name": "MUNDAŊ"
  },
  {
    "id": 96,
    "code": "jgo",
    "name": "Ndaꞌa"
  },
  {
    "id": 97,
    "code": "nds",
    "name": "Nds"
  },
  {
    "id": 98,
    "code": "nl",
    "name": "Nederlands"
  },
  {
    "id": 99,
    "code": "nmg",
    "name": "Nmg"
  },
  {
    "id": 100,
    "code": "nb",
    "name": "Norsk Bokmål"
  },
  {
    "id": 101,
    "code": "yav",
    "name": "Nuasue"
  },
  {
    "id": 102,
    "code": "nn",
    "name": "Nynorsk"
  },
  {
    "id": 103,
    "code": "uz",
    "name": "O‘zbek"
  },
  {
    "id": 104,
    "code": "xog",
    "name": "Olusoga"
  },
  {
    "id": 105,
    "code": "om",
    "name": "Oromoo"
  },
  {
    "id": 106,
    "code": "pl",
    "name": "Polski"
  },
  {
    "id": 107,
    "code": "pt",
    "name": "Português"
  },
  {
    "id": 108,
    "code": "ff",
    "name": "Pulaar"
  },
  {
    "id": 109,
    "code": "ksf",
    "name": "Rikpa"
  },
  {
    "id": 110,
    "code": "ro",
    "name": "Română"
  },
  {
    "id": 111,
    "code": "cgg",
    "name": "Rukiga"
  },
  {
    "id": 112,
    "code": "rm",
    "name": "Rumantsch"
  },
  {
    "id": 113,
    "code": "qu",
    "name": "Runasimi"
  },
  {
    "id": 114,
    "code": "nyn",
    "name": "Runyankore"
  },
  {
    "id": 115,
    "code": "sg",
    "name": "Sängö"
  },
  {
    "id": 116,
    "code": "gsw",
    "name": "Schwiizertüütsch"
  },
  {
    "id": 117,
    "code": "seh",
    "name": "Sena"
  },
  {
    "id": 118,
    "code": "sq",
    "name": "Shqip"
  },
  {
    "id": 119,
    "code": "nnh",
    "name": "Shwóŋò Ngiembɔɔn"
  },
  {
    "id": 120,
    "code": "sk",
    "name": "Slovenčina"
  },
  {
    "id": 121,
    "code": "sl",
    "name": "Slovenščina"
  },
  {
    "id": 122,
    "code": "so",
    "name": "Soomaali"
  },
  {
    "id": 123,
    "code": "fi",
    "name": "Suomi"
  },
  {
    "id": 124,
    "code": "sv",
    "name": "Svenska"
  },
  {
    "id": 125,
    "code": "tzm",
    "name": "Tamaziɣt n Laṭlaṣ"
  },
  {
    "id": 126,
    "code": "kab",
    "name": "Taqbaylit"
  },
  {
    "id": 127,
    "code": "twq",
    "name": "Tasawaq Senni"
  },
  {
    "id": 128,
    "code": "nus",
    "name": "Thok Nath"
  },
  {
    "id": 129,
    "code": "vi",
    "name": "Tiếng Việt"
  },
  {
    "id": 130,
    "code": "lu",
    "name": "Tshiluba"
  },
  {
    "id": 131,
    "code": "tr",
    "name": "Türkçe"
  },
  {
    "id": 132,
    "code": "tk",
    "name": "Türkmen Dili"
  },
  {
    "id": 133,
    "code": "wae",
    "name": "Walser"
  },
  {
    "id": 134,
    "code": "fy",
    "name": "West-Frysk"
  },
  {
    "id": 135,
    "code": "dje",
    "name": "Zarmaciine"
  },
  {
    "id": 136,
    "code": "el",
    "name": "Ελληνικά"
  },
  {
    "id": 137,
    "code": "be",
    "name": "беларуская"
  },
  {
    "id": 138,
    "code": "bg",
    "name": "български"
  },
  {
    "id": 139,
    "code": "os",
    "name": "ирон"
  },
  {
    "id": 140,
    "code": "ky",
    "name": "Кыргызча"
  },
  {
    "id": 141,
    "code": "kk",
    "name": "Қазақ тілі"
  },
  {
    "id": 142,
    "code": "mk",
    "name": "Македонски"
  },
  {
    "id": 143,
    "code": "mn",
    "name": "Монгол"
  },
  {
    "id": 144,
    "code": "ce",
    "name": "нохчийн"
  },
  {
    "id": 145,
    "code": "ru",
    "name": "Русский"
  },
  {
    "id": 146,
    "code": "sah",
    "name": "саха тыла"
  },
  {
    "id": 147,
    "code": "sr",
    "name": "Српски"
  },
  {
    "id": 148,
    "code": "tg",
    "name": "Тоҷикӣ"
  },
  {
    "id": 149,
    "code": "uk",
    "name": "Українська"
  },
  {
    "id": 150,
    "code": "ka",
    "name": "ქართული"
  },
  {
    "id": 151,
    "code": "hy",
    "name": "հայերեն"
  },
  {
    "id": 152,
    "code": "ji",
    "name": "ייִדיש"
  },
  {
    "id": 153,
    "code": "iw",
    "name": "עברית"
  },
  {
    "id": 154,
    "code": "ug",
    "name": "ئۇيغۇرچە"
  },
  {
    "id": 155,
    "code": "ur",
    "name": "اردو"
  },
  {
    "id": 156,
    "code": "ar",
    "name": "العربية"
  },
  {
    "id": 157,
    "code": "ps",
    "name": "پښتو"
  },
  {
    "id": 158,
    "code": "fa",
    "name": "فارسی"
  },
  {
    "id": 159,
    "code": "ks",
    "name": "کٲشُر"
  },
  {
    "id": 160,
    "code": "ckb",
    "name": "کوردیی ناوەندی"
  },
  {
    "id": 161,
    "code": "lrc",
    "name": "لۊری شومالی"
  },
  {
    "id": 162,
    "code": "mzn",
    "name": "مازرونی"
  },
  {
    "id": 163,
    "code": "zgh",
    "name": "ⵜⴰⵎⴰⵣⵉⵖⵜ"
  },
  {
    "id": 164,
    "code": "shi",
    "name": "ⵜⴰⵛⵍⵃⵉⵜ"
  },
  {
    "id": 165,
    "code": "ti",
    "name": "ትግርኛ"
  },
  {
    "id": 166,
    "code": "am",
    "name": "አማርኛ"
  },
  {
    "id": 167,
    "code": "kok",
    "name": "कोंकणी"
  },
  {
    "id": 168,
    "code": "ne",
    "name": "नेपाली"
  },
  {
    "id": 169,
    "code": "brx",
    "name": "बड़ो"
  },
  {
    "id": 170,
    "code": "mr",
    "name": "मराठी"
  },
  {
    "id": 171,
    "code": "hi",
    "name": "हिन्दी"
  },
  {
    "id": 172,
    "code": "as",
    "name": "অসমীয়া"
  },
  {
    "id": 173,
    "code": "bn",
    "name": "বাংলা"
  },
  {
    "id": 174,
    "code": "pa",
    "name": "ਪੰਜਾਬੀ"
  },
  {
    "id": 175,
    "code": "gu",
    "name": "ગુજરાતી"
  },
  {
    "id": 176,
    "code": "or",
    "name": "ଓଡ଼ିଆ"
  },
  {
    "id": 177,
    "code": "ta",
    "name": "தமிழ்"
  },
  {
    "id": 178,
    "code": "te",
    "name": "తెలుగు"
  },
  {
    "id": 179,
    "code": "kn",
    "name": "ಕನ್ನಡ"
  },
  {
    "id": 180,
    "code": "ml",
    "name": "മലയാളം"
  },
  {
    "id": 181,
    "code": "si",
    "name": "සිංහල"
  },
  {
    "id": 182,
    "code": "th",
    "name": "ไทย"
  },
  {
    "id": 183,
    "code": "lo",
    "name": "ລາວ"
  },
  {
    "id": 184,
    "code": "bo",
    "name": "བོད་སྐད།"
  },
  {
    "id": 185,
    "code": "dz",
    "name": "རྫོང་ཁ"
  },
  {
    "id": 186,
    "code": "my",
    "name": "မြန်မာ"
  },
  {
    "id": 187,
    "code": "km",
    "name": "ខ្មែរ"
  },
  {
    "id": 188,
    "code": "chr",
    "name": "ᏣᎳᎩ"
  },
  {
    "id": 189,
    "code": "vai",
    "name": "ꕙꔤ"
  },
  {
    "id": 190,
    "code": "ko",
    "name": "한국어"
  },
  {
    "id": 191,
    "code": "ii",
    "name": "ꆈꌠꉙ"
  },
  {
    "id": 192,
    "code": "zh",
    "name": "中文"
  },
  {
    "id": 193,
    "code": "ja",
    "name": "日本語"
  },
  {
    "id": 194,
    "code": "yue",
    "name": "粵語"
  }
]